^G:\tc25\Filters\3mf\3mf.vcxproj
G:\tc25\x64\Release\3mf.lib
G:\tc25\x64\Release\3mf.exp
^3mf
G:\tc25\bin\v140\64r\filters\3mf.dll
^G:\tc25\Filters\3mf\3mf.vcxproj
G:\tc25\x64\Release\3mf.lib
G:\tc25\x64\Release\3mf.exp
^3mf
G:\tc25\bin\v140\64r\filters\3mf.dll
