^G:\TC25\FILTERS\3MF\X64\RELEASE\3MF.RES|G:\TC25\FILTERS\3MF\X64\RELEASE\3MFDLG.OBJ|G:\TC25\FILTERS\3MF\X64\RELEASE\3MFEXPORT.OBJ|G:\TC25\FILTERS\3MF\X64\RELEASE\3MFMAIN.OBJ|G:\TC25\FILTERS\3MF\X64\RELEASE\ADDFACET.OBJ|G:\TC25\FILTERS\3MF\X64\RELEASE\APITYPES.OBJ|G:\TC25\FILTERS\3MF\X64\RELEASE\COLOR.OBJ|G:\TC25\FILTERS\3MF\X64\RELEASE\COMFILT.OBJ|G:\TC25\FILTERS\3MF\X64\RELEASE\DBAPIADD.OBJ|G:\TC25\FILTERS\3MF\X64\RELEASE\EXCEPT.OBJ|G:\TC25\FILTERS\3MF\X64\RELEASE\EXC_TCW.OBJ|G:\TC25\FILTERS\3MF\X64\RELEASE\FILLER.OBJ|G:\TC25\FILTERS\3MF\X64\RELEASE\FILTER.OBJ|G:\TC25\FILTERS\3MF\X64\RELEASE\GR_TYPES.OBJ|G:\TC25\FILTERS\3MF\X64\RELEASE\METRICS.OBJ|G:\TC25\FILTERS\3MF\X64\RELEASE\PARSTCW.OBJ|G:\TC25\FILTERS\3MF\X64\RELEASE\STDAFX.OBJ|G:\TC25\FILTERS\3MF\X64\RELEASE\TCW_DEF.OBJ|G:\TC25\LIB\V140\64R\DBAPI24.LIB|G:\TC25\LIB\V140\64R\TCAPI24.LIB
C:\WINDOWS\GLOBALIZATION\SORTING\SORTDEFAULT.NLS
G:\TC25\LIB\V140\64R\DBAPI24.LIB
C:\PROGRAM FILES (X86)\WINDOWS KITS\8.1\LIB\WINV6.3\UM\X64\USER32.LIB
C:\PROGRAM FILES (X86)\WINDOWS KITS\8.1\LIB\WINV6.3\UM\X64\GDI32.LIB
G:\TC25\LIB\V140\64R\TCAPI24.LIB
G:\TC25\TCDIRECT\LIB\V140\64R\GEOM24.LIB
G:\TC25\LIB\V140\64R\PNG.LIB
G:\TC25\LIB\V140\64R\JPEG.LIB
G:\TC25\LIB\V140\64R\TIFF.LIB
G:\TC25\LIB\V140\64R\JASPER.LIB
G:\TC25\LIB\V140\64R\CXIMAGE.LIB
G:\TC25\FILTERS\3MF\X64\RELEASE\3MF.RES
G:\TC25\FILTERS\3MF\X64\RELEASE\TCW_DEF.OBJ
G:\TC25\FILTERS\3MF\X64\RELEASE\ADDFACET.OBJ
G:\TC25\FILTERS\3MF\X64\RELEASE\APITYPES.OBJ
G:\TC25\FILTERS\3MF\X64\RELEASE\COLOR.OBJ
G:\TC25\FILTERS\3MF\X64\RELEASE\COMFILT.OBJ
G:\TC25\FILTERS\3MF\X64\RELEASE\DBAPIADD.OBJ
G:\TC25\FILTERS\3MF\X64\RELEASE\EXCEPT.OBJ
G:\TC25\FILTERS\3MF\X64\RELEASE\EXC_TCW.OBJ
G:\TC25\FILTERS\3MF\X64\RELEASE\FILLER.OBJ
G:\TC25\FILTERS\3MF\X64\RELEASE\FILTER.OBJ
G:\TC25\FILTERS\3MF\X64\RELEASE\GR_TYPES.OBJ
G:\TC25\FILTERS\3MF\X64\RELEASE\METRICS.OBJ
G:\TC25\FILTERS\3MF\X64\RELEASE\PARSTCW.OBJ
G:\TC25\FILTERS\3MF\X64\RELEASE\3MFDLG.OBJ
G:\TC25\FILTERS\3MF\X64\RELEASE\3MFEXPORT.OBJ
G:\TC25\FILTERS\3MF\X64\RELEASE\3MFMAIN.OBJ
G:\TC25\FILTERS\3MF\X64\RELEASE\STDAFX.OBJ
C:\PROGRAM FILES (X86)\MICROSOFT VISUAL STUDIO 14.0\VC\ATLMFC\LIB\AMD64\MFC140.LIB
C:\PROGRAM FILES (X86)\MICROSOFT VISUAL STUDIO 14.0\VC\ATLMFC\LIB\AMD64\MFCS140.LIB
C:\PROGRAM FILES (X86)\MICROSOFT VISUAL STUDIO 14.0\VC\LIB\AMD64\MSVCRT.LIB
C:\PROGRAM FILES (X86)\WINDOWS KITS\8.1\LIB\WINV6.3\UM\X64\KERNEL32.LIB
C:\PROGRAM FILES (X86)\WINDOWS KITS\8.1\LIB\WINV6.3\UM\X64\MSIMG32.LIB
C:\PROGRAM FILES (X86)\WINDOWS KITS\8.1\LIB\WINV6.3\UM\X64\COMDLG32.LIB
C:\PROGRAM FILES (X86)\WINDOWS KITS\8.1\LIB\WINV6.3\UM\X64\WINSPOOL.LIB
C:\PROGRAM FILES (X86)\WINDOWS KITS\8.1\LIB\WINV6.3\UM\X64\ADVAPI32.LIB
C:\PROGRAM FILES (X86)\WINDOWS KITS\8.1\LIB\WINV6.3\UM\X64\SHELL32.LIB
C:\PROGRAM FILES (X86)\WINDOWS KITS\8.1\LIB\WINV6.3\UM\X64\COMCTL32.LIB
C:\PROGRAM FILES (X86)\WINDOWS KITS\8.1\LIB\WINV6.3\UM\X64\SHLWAPI.LIB
C:\PROGRAM FILES (X86)\WINDOWS KITS\8.1\LIB\WINV6.3\UM\X64\UXTHEME.LIB
C:\PROGRAM FILES (X86)\WINDOWS KITS\8.1\LIB\WINV6.3\UM\X64\WINDOWSCODECS.LIB
C:\PROGRAM FILES (X86)\WINDOWS KITS\8.1\LIB\WINV6.3\UM\X64\UUID.LIB
C:\PROGRAM FILES (X86)\MICROSOFT VISUAL STUDIO 14.0\VC\ATLMFC\LIB\AMD64\ATLS.LIB
C:\PROGRAM FILES (X86)\WINDOWS KITS\8.1\LIB\WINV6.3\UM\X64\OLE32.LIB
C:\PROGRAM FILES (X86)\WINDOWS KITS\8.1\LIB\WINV6.3\UM\X64\OLEAUT32.LIB
C:\PROGRAM FILES (X86)\WINDOWS KITS\8.1\LIB\WINV6.3\UM\X64\OLEDLG.LIB
C:\PROGRAM FILES (X86)\WINDOWS KITS\8.1\LIB\WINV6.3\UM\X64\URLMON.LIB
G:\TC25\LIB\V140\64R\TCBUILD.LIB
C:\PROGRAM FILES (X86)\MICROSOFT VISUAL STUDIO 14.0\VC\LIB\AMD64\MSVCPRT.LIB
G:\TC25\TCDIRECT\LIB\V140\64R\TCD_PORTING.LIB
G:\TC25\TCDIRECT\LIB\V140\64R\TCDEBUGAPI.LIB
C:\PROGRAM FILES (X86)\MICROSOFT VISUAL STUDIO 14.0\VC\LIB\AMD64\OLDNAMES.LIB
G:\TC25\TCDIRECT\LIB\V140\64R\TCHEAP.LIB
G:\TC25\TCDIRECT\LIB\V140\64R\TCXMLINI.LIB
G:\TC25\TCDIRECT\LIB\V140\64R\TCDBAPI.LIB
C:\PROGRAM FILES (X86)\WINDOWS KITS\8.1\LIB\WINV6.3\UM\X64\WININET.LIB
C:\PROGRAM FILES (X86)\WINDOWS KITS\8.1\LIB\WINV6.3\UM\X64\WS2_32.LIB
C:\PROGRAM FILES (X86)\WINDOWS KITS\8.1\LIB\WINV6.3\UM\X64\MSWSOCK.LIB
C:\PROGRAM FILES (X86)\MICROSOFT VISUAL STUDIO 14.0\VC\LIB\AMD64\VCRUNTIME.LIB
C:\PROGRAM FILES (X86)\WINDOWS KITS\10\LIB\10.0.10240.0\UCRT\X64\UCRT.LIB
G:\TC25\FILTERS\3MF\3MF.DEF
C:\WINDOWS\SYSTEM32\TZRES.DLL
C:\PROGRAM FILES (X86)\MICROSOFT VISUAL STUDIO 14.0\VC\BIN\X86_AMD64\1033\LINKUI.DLL
C:\PROGRAM FILES (X86)\WINDOWS KITS\8.1\BIN\X86\MT.EXE
C:\PROGRAM FILES (X86)\WINDOWS KITS\8.1\BIN\X86\RC.EXE
C:\PROGRAM FILES (X86)\MICROSOFT VISUAL STUDIO 14.0\VC\BIN\CVTRES.EXE
C:\PROGRAM FILES (X86)\MICROSOFT VISUAL STUDIO 14.0\VC\BIN\MSPDBSRV.EXE
C:\PROGRAM FILES (X86)\MICROSOFT VISUAL STUDIO 14.0\VC\INCLUDE\MANIFEST\DPIAWARE.MANIFEST
