^G:\TC25\FILTERS\3MF\X64\RELEASE\3MF.RES|G:\TC25\FILTERS\3MF\X64\RELEASE\3MFDLG.OBJ|G:\TC25\FILTERS\3MF\X64\RELEASE\3MFEXPORT.OBJ|G:\TC25\FILTERS\3MF\X64\RELEASE\3MFMAIN.OBJ|G:\TC25\FILTERS\3MF\X64\RELEASE\ADDFACET.OBJ|G:\TC25\FILTERS\3MF\X64\RELEASE\APITYPES.OBJ|G:\TC25\FILTERS\3MF\X64\RELEASE\COLOR.OBJ|G:\TC25\FILTERS\3MF\X64\RELEASE\COMFILT.OBJ|G:\TC25\FILTERS\3MF\X64\RELEASE\DBAPIADD.OBJ|G:\TC25\FILTERS\3MF\X64\RELEASE\EXCEPT.OBJ|G:\TC25\FILTERS\3MF\X64\RELEASE\EXC_TCW.OBJ|G:\TC25\FILTERS\3MF\X64\RELEASE\FILLER.OBJ|G:\TC25\FILTERS\3MF\X64\RELEASE\FILTER.OBJ|G:\TC25\FILTERS\3MF\X64\RELEASE\GR_TYPES.OBJ|G:\TC25\FILTERS\3MF\X64\RELEASE\METRICS.OBJ|G:\TC25\FILTERS\3MF\X64\RELEASE\PARSTCW.OBJ|G:\TC25\FILTERS\3MF\X64\RELEASE\STDAFX.OBJ|G:\TC25\FILTERS\3MF\X64\RELEASE\TCW_DEF.OBJ|G:\TC25\LIB\V140\64R\DBAPI24.LIB|G:\TC25\LIB\V140\64R\TCAPI24.LIB
G:\TC25\X64\RELEASE\3MF.DLL
G:\TC25\X64\RELEASE\3MF.PDB
